INFO  17:55:10,735 - Compiling source file: C:\pp1domaci\workspace\MJCompiler\test\program.mj
INFO  17:55:10,744 - #1 program
INFO  17:55:10,744 - #4 MJProgram
INFO  17:55:10,744 - #4 int
INFO  17:55:10,745 - #4 x
INFO  17:55:10,745 - #8 ,
INFO  17:55:10,745 - #4 y
INFO  17:55:10,745 - #9 ;
INFO  17:55:10,745 - #12 {
INFO  17:55:10,745 - #15 void
INFO  17:55:10,746 - #4 main
INFO  17:55:10,746 - #10 (
INFO  17:55:10,746 - #11 )
INFO  17:55:10,746 - #12 {
INFO  17:55:10,746 - #13 }
INFO  17:55:10,746 - #13 }
