2017-05-31 23:31:08,088 [main] INFO : Logging file: C:\Users\Dusan\Desktop\PP1\PP1 projekat\test\program.mj 
2017-05-31 23:31:08,093 [main] INFO : Našao Sabirac na liniji 1 
2017-05-31 23:31:08,093 [main] INFO : Našao osnova na liniji 2 
2017-05-31 23:31:08,093 [main] INFO : Našao qe na liniji 2 
2017-05-31 23:31:08,094 [main] INFO : Našao podosnova na liniji 3 
2017-05-31 23:31:08,094 [main] INFO : Našao uzosnova na liniji 3 
2017-05-31 23:31:08,094 [main] INFO : Našao nizosnova na liniji 4 
2017-05-31 23:31:08,094 [main] INFO : Obrađujemo metodu main 
2017-05-31 23:31:08,094 [main] INFO : Nađena lokalna promenljiva x 
2017-05-31 23:31:08,095 [main] INFO : Nađena lokalna promenljiva y 
2017-05-31 23:31:08,095 [main] INFO : Nađena lokalna promenljiva z 
2017-05-31 23:31:08,095 [main] INFO : Nađena lokalna promenljiva q 
2017-05-31 23:31:08,095 [main] INFO : Nađena lokalna promenljiva z 
2017-05-31 23:31:08,095 [main] INFO : Nađena lokalna promenljiva t 
2017-05-31 23:31:08,095 [main] INFO : Korišćenje podosnova na liniji 17 
2017-05-31 23:31:08,095 [main] INFO : Dodela vrednosti 3 globalnoj promenjivoj podosnova na liniji 17 
2017-05-31 23:31:08,096 [main] INFO : Korišćenje podosnova na liniji 18 
2017-05-31 23:31:08,096 [main] INFO : Dodela vrednosti 9 globalnoj promenjivoj podosnova na liniji 18 
2017-05-31 23:31:08,096 [main] ERROR: 
Sintaksna greška na liniji 19 
2017-05-31 23:31:08,096 [main] ERROR: Oporavak od greške: Pri dodeli vrednosti do znaka ';', na liniji 18 
2017-05-31 23:31:08,097 [main] INFO : Korišćenje podosnova na liniji 20 
2017-05-31 23:31:08,097 [main] INFO : Štampanje bez dužine na liniji 20 
2017-05-31 23:31:08,097 [main] ERROR: Neuspešno parsiranje! 
2017-05-31 23:31:08,097 [main] INFO : 
Globalne promenljive: 3
Lokalne promenljive: 6
Globalne konstante: 2
 
