2017-06-21 05:31:22,868 [main] INFO : Logging file: C:\Users\Dusan\Desktop\PP1\PP1 projekat\test\skalarni.mj 
2017-06-21 05:31:22,873 [main] INFO : Našao Skalarni na liniji 1 
2017-06-21 05:31:22,873 [main] INFO : Našao osnova na liniji 2 
2017-06-21 05:31:22,873 [main] INFO : Našao qe na liniji 2 
2017-06-21 05:31:22,873 [main] INFO : Našao va na liniji 3 
2017-06-21 05:31:22,878 [main] INFO : Našao vb na liniji 3 
2017-06-21 05:31:22,878 [main] INFO : Našao vc na liniji 3 
2017-06-21 05:31:22,878 [main] INFO : Našao i na liniji 4 
2017-06-21 05:31:22,878 [main] INFO : Našao podosnova na liniji 4 
2017-06-21 05:31:22,878 [main] INFO : Našao uzosnova na liniji 4 
2017-06-21 05:31:22,878 [main] INFO : Našao niz na liniji 5 
2017-06-21 05:31:22,878 [main] INFO : Našao niz1 na liniji 5 
2017-06-21 05:31:22,878 [main] INFO : Našao niz2 na liniji 5 
2017-06-21 05:31:22,878 [main] INFO : Našao c na liniji 6 
2017-06-21 05:31:22,878 [main] INFO : Našao d na liniji 6 
2017-06-21 05:31:22,878 [main] INFO : Našao e na liniji 6 
2017-06-21 05:31:22,878 [main] INFO : Našao tacno na liniji 7 
2017-06-21 05:31:22,878 [main] INFO : Našao netacno na liniji 7 
2017-06-21 05:31:22,878 [main] INFO : Broj form. par za metodu pp je 1 na liniji 9 
2017-06-21 05:31:22,883 [main] INFO : Obrađujemo metodu pp, broj fp: 1, broj promenljivih: 1 
2017-06-21 05:31:22,883 [main] INFO : Korišćenje i na liniji 10 
2017-06-21 05:31:22,883 [main] INFO : Štampanje bez dužine na liniji 10 
2017-06-21 05:31:22,883 [main] INFO : Tip metode pp je void na liniji 11 
2017-06-21 05:31:22,883 [main] INFO : Nije vraćena vrednost 
2017-06-21 05:31:22,883 [main] INFO : Broj form. par za metodu printArray je 2 na liniji 13 
2017-06-21 05:31:22,883 [main] INFO : Nađena promenljiva f-je i 
2017-06-21 05:31:22,883 [main] INFO : Obrađujemo metodu printArray, broj fp: 2, broj promenljivih: 3 
2017-06-21 05:31:22,883 [main] INFO : Ušli u for na liniji 16 
2017-06-21 05:31:22,883 [main] INFO : Korišćenje i na liniji 16 
2017-06-21 05:31:22,883 [main] INFO : Dodali početak cond na 13 
2017-06-21 05:31:22,883 [main] INFO : Korišćenje i na liniji 16 
2017-06-21 05:31:22,883 [main] INFO : Korišćenje n na liniji 16 
2017-06-21 05:31:22,883 [main] INFO : Dodali za jmp to statement prazan skok na adresi 19 
2017-06-21 05:31:22,883 [main] INFO : Dodali početak after na 21 
2017-06-21 05:31:22,883 [main] INFO : Korišćenje i na liniji 16 
2017-06-21 05:31:22,883 [main] INFO : Patchovali jump na 13 na 28 
2017-06-21 05:31:22,883 [main] INFO : Popravili skok na statement na 19da skače na 28 
2017-06-21 05:31:22,883 [main] INFO : Korišćenje array na liniji 17 
2017-06-21 05:31:22,883 [main] INFO : Korišćenje i na liniji 17 
2017-06-21 05:31:22,883 [main] INFO : Štampanje bez dužine na liniji 17 
2017-06-21 05:31:22,883 [main] INFO : Ubacili skok na 21 sa 36 
2017-06-21 05:31:22,883 [main] INFO : Tip metode printArray je void na liniji 18 
2017-06-21 05:31:22,883 [main] INFO : Nije vraćena vrednost 
2017-06-21 05:31:22,883 [main] INFO : Broj form. par za metodu a je 3 na liniji 20 
2017-06-21 05:31:22,883 [main] INFO : Obrađujemo metodu a, broj fp: 3, broj promenljivih: 3 
2017-06-21 05:31:22,883 [main] INFO : Korišćenje y na liniji 21 
2017-06-21 05:31:22,883 [main] INFO : Korišćenje z na liniji 22 
2017-06-21 05:31:22,883 [main] INFO : Korišćenje x na liniji 23 
2017-06-21 05:31:22,883 [main] INFO : Štampanje bez dužine na liniji 23 
2017-06-21 05:31:22,883 [main] INFO : Korišćenje y na liniji 24 
2017-06-21 05:31:22,883 [main] INFO : Štampanje bez dužine na liniji 24 
2017-06-21 05:31:22,883 [main] INFO : Korišćenje z na liniji 25 
2017-06-21 05:31:22,888 [main] INFO : Štampanje bez dužine na liniji 25 
2017-06-21 05:31:22,888 [main] INFO : Tip metode a je void na liniji 26 
2017-06-21 05:31:22,888 [main] INFO : Nije vraćena vrednost 
2017-06-21 05:31:22,888 [main] INFO : Broj form. par za metodu x je 0 na liniji 28 
2017-06-21 05:31:22,888 [main] INFO : Obrađujemo metodu x, broj fp: 0, broj promenljivih: 0 
2017-06-21 05:31:22,888 [main] INFO : Tip metode x nije void na liniji 30 
2017-06-21 05:31:22,888 [main] INFO : Vraćena vrednost 
2017-06-21 05:31:22,888 [main] INFO : Broj form. par za metodu pp je 1 na liniji 32 
2017-06-21 05:31:22,888 [main] INFO : Obrađujemo metodu pp, broj fp: 1, broj promenljivih: 1 
2017-06-21 05:31:22,888 [main] INFO : Korišćenje i na liniji 33 
2017-06-21 05:31:22,888 [main] INFO : Štampanje bez dužine na liniji 33 
2017-06-21 05:31:22,888 [main] INFO : Tip metode pp je void na liniji 34 
2017-06-21 05:31:22,888 [main] INFO : Nije vraćena vrednost 
2017-06-21 05:31:22,888 [main] INFO : Broj form. par za metodu main je 0 na liniji 36 
2017-06-21 05:31:22,888 [main] INFO : Obrađujemo metodu main, broj fp: 0, broj promenljivih: 0 
2017-06-21 05:31:22,888 [main] INFO : Korišćenje va na liniji 37 
2017-06-21 05:31:22,888 [main] INFO : Korišćenje vb na liniji 37 
2017-06-21 05:31:22,888 [main] INFO : Korišćenje vc na liniji 37 
2017-06-21 05:31:22,888 [main] INFO : Korišćenje va na liniji 38 
2017-06-21 05:31:22,888 [main] INFO : Štampanje bez dužine na liniji 38 
2017-06-21 05:31:22,888 [main] INFO : Korišćenje va na liniji 39 
2017-06-21 05:31:22,888 [main] INFO : Korišćenje va na liniji 40 
2017-06-21 05:31:22,888 [main] INFO : Štampanje bez dužine na liniji 40 
2017-06-21 05:31:22,888 [main] INFO : Korišćenje va na liniji 41 
2017-06-21 05:31:22,888 [main] INFO : Korišćenje va na liniji 42 
2017-06-21 05:31:22,888 [main] INFO : Štampanje bez dužine na liniji 42 
2017-06-21 05:31:22,888 [main] INFO : Korišćenje va na liniji 43 
2017-06-21 05:31:22,888 [main] INFO : Štampanje bez dužine na liniji 43 
2017-06-21 05:31:22,888 [main] INFO : Korišćenje va na liniji 44 
2017-06-21 05:31:22,888 [main] INFO : Designator za va i int 
2017-06-21 05:31:22,888 [main] INFO : Korišćenje va na liniji 45 
2017-06-21 05:31:22,888 [main] INFO : Štampanje bez dužine na liniji 45 
2017-06-21 05:31:22,888 [main] INFO : Korišćenje va na liniji 46 
2017-06-21 05:31:22,888 [main] INFO : Štampanje bez dužine na liniji 46 
2017-06-21 05:31:22,888 [main] INFO : Korišćenje va na liniji 47 
2017-06-21 05:31:22,893 [main] INFO : Designator za va i int 
2017-06-21 05:31:22,893 [main] INFO : Korišćenje va na liniji 48 
2017-06-21 05:31:22,893 [main] INFO : Štampanje bez dužine na liniji 48 
2017-06-21 05:31:22,893 [main] INFO : Tip metode main je void na liniji 49 
2017-06-21 05:31:22,893 [main] INFO : Nije vraćena vrednost 
2017-06-21 05:31:22,898 [main] ERROR: Nije pronađen put do fajla za test! 
