2017-06-20 23:35:06,322 [main] INFO : Logging file: C:\Users\Dusan\Desktop\PP1\PP1 projekat\test\program.mj 
2017-06-20 23:35:06,333 [main] INFO : Našao Sabirac na liniji 1 
2017-06-20 23:35:06,333 [main] INFO : Našao a na liniji 7 
2017-06-20 23:35:06,334 [main] INFO : Adresa virtuelne tabele je 0 
2017-06-20 23:35:06,334 [main] INFO : Obrađujemo klasu B na liniji 8 
2017-06-20 23:35:06,334 [main] INFO : Obrađujemo promeljivu classA u klasi na liniji 9 
2017-06-20 23:35:06,334 [main] INFO : Obrađujemo promeljivu classB u klasi na liniji 9 
2017-06-20 23:35:06,335 [main] INFO : Obrađujemo metodu wo, broj fp: 1, broj promenljivih: 2 
2017-06-20 23:35:06,335 [main] INFO : Korišćenje classA na liniji 12 
2017-06-20 23:35:06,335 [main] INFO : Korišćenje x na liniji 12 
2017-06-20 23:35:06,335 [main] ERROR: Greška na liniji 12: tip promenljive mora biti tip niza 
2017-06-20 23:35:06,336 [main] INFO : Štampanje bez dužine na liniji 12 
2017-06-20 23:35:06,336 [main] INFO : Tip metode wo je void na liniji 13 
2017-06-20 23:35:06,336 [main] INFO : Nije vraćena vrednost 
2017-06-20 23:35:06,336 [main] INFO : Obrađujemo metodu wt, broj fp: 0, broj promenljivih: 1 
2017-06-20 23:35:06,336 [main] INFO : Štampanje bez dužine na liniji 16 
2017-06-20 23:35:06,337 [main] INFO : Tip metode wt je void na liniji 17 
2017-06-20 23:35:06,337 [main] INFO : Nije vraćena vrednost 
2017-06-20 23:35:06,337 [main] INFO : Kraj obrade klase B 
2017-06-20 23:35:06,337 [main] INFO : Našao b na liniji 22 
2017-06-20 23:35:06,337 [main] INFO : Obrađujemo metodu main, broj fp: 0, broj promenljivih: 0 
2017-06-20 23:35:06,337 [main] INFO : Korišćenje b na liniji 58 
2017-06-20 23:35:06,338 [main] INFO : Inicijalizacija klase na liniji 58 
2017-06-20 23:35:06,338 [main] INFO : Korišćenje b na liniji 59 
2017-06-20 23:35:07,322 [main] INFO : Tražimo element classA klase b na liniji 59 
2017-06-20 23:35:07,323 [main] INFO : Inicijalizacija niza na liniji 59 
2017-06-20 23:35:07,323 [main] INFO : Korišćenje b na liniji 60 
2017-06-20 23:35:07,962 [main] INFO : Tražimo element classA klase b na liniji 60 
2017-06-20 23:35:07,962 [main] INFO : Tip metode main je void na liniji 64 
2017-06-20 23:35:07,963 [main] INFO : Nije vraćena vrednost 
2017-06-20 23:35:07,963 [main] ERROR: Neuspešno parsiranje! 
