2017-06-08 02:04:39,948 [main] INFO : Logging file: C:\Users\Dusan\Desktop\PP1\PP1 projekat\test\program.mj 
2017-06-08 02:04:39,953 [main] INFO : Našao Sabirac na liniji 1 
2017-06-08 02:04:39,953 [main] INFO : Našao osnova na liniji 2 
2017-06-08 02:04:39,953 [main] INFO : Našao qe na liniji 2 
2017-06-08 02:04:39,953 [main] INFO : Našao q na liniji 3 
2017-06-08 02:04:39,953 [main] INFO : Našao b na liniji 3 
2017-06-08 02:04:39,953 [main] INFO : Našao c na liniji 3 
2017-06-08 02:04:39,953 [main] INFO : Našao va na liniji 4 
2017-06-08 02:04:39,953 [main] INFO : Našao vb na liniji 4 
2017-06-08 02:04:39,953 [main] INFO : Našao vc na liniji 4 
2017-06-08 02:04:39,953 [main] INFO : Našao i na liniji 5 
2017-06-08 02:04:39,953 [main] INFO : Našao podosnova na liniji 5 
2017-06-08 02:04:39,953 [main] INFO : Našao uzosnova na liniji 5 
2017-06-08 02:04:39,953 [main] INFO : Našao niz na liniji 6 
2017-06-08 02:04:39,953 [main] INFO : Našao niz1 na liniji 6 
2017-06-08 02:04:39,953 [main] INFO : Našao niz2 na liniji 6 
2017-06-08 02:04:39,953 [main] INFO : Nađena promenljiva f-je qbc 
2017-06-08 02:04:39,958 [main] INFO : Obrađujemo metodu b, broj fp: 2, broj promenljivih: 3 
2017-06-08 02:04:39,958 [main] INFO : Korišćenje qbc na liniji 12 
2017-06-08 02:04:39,958 [main] INFO : Korišćenje x na liniji 12 
2017-06-08 02:04:39,958 [main] INFO : LOADED 
2017-06-08 02:04:39,958 [main] INFO : Korišćenje qbc na liniji 13 
2017-06-08 02:04:39,958 [main] INFO : Korišćenje qbc na liniji 14 
2017-06-08 02:04:39,958 [main] INFO : LOADED 
2017-06-08 02:04:39,958 [main] INFO : Tip metode b nije void na liniji 15 
2017-06-08 02:04:39,958 [main] INFO : Vraćena vrednost 
2017-06-08 02:04:39,958 [main] INFO : Obrađujemo metodu a, broj fp: 0, broj promenljivih: 0 
2017-06-08 02:04:39,958 [main] INFO : Štampanje bez dužine na liniji 18 
2017-06-08 02:04:39,958 [main] INFO : Tip metode a je void na liniji 19 
2017-06-08 02:04:39,958 [main] INFO : Nije vraćena vrednost 
2017-06-08 02:04:39,958 [main] INFO : Obrađujemo metodu main, broj fp: 0, broj promenljivih: 0 
2017-06-08 02:04:39,958 [main] INFO : Korišćenje va na liniji 22 
2017-06-08 02:04:39,958 [main] INFO : Korišćenje vb na liniji 23 
2017-06-08 02:04:39,958 [main] INFO : Korišćenje vc na liniji 24 
2017-06-08 02:04:39,958 [main] INFO : Korišćenje va na liniji 26 
2017-06-08 02:04:39,958 [main] INFO : Korišćenje vb na liniji 26 
2017-06-08 02:04:39,958 [main] INFO : LOADED 
2017-06-08 02:04:39,958 [main] INFO : ExprListRight za vb i int 
2017-06-08 02:04:39,958 [main] INFO : Designator za va i int 
2017-06-08 02:04:39,958 [main] INFO : Korišćenje va na liniji 28 
2017-06-08 02:04:39,958 [main] INFO : LOADED 
2017-06-08 02:04:39,958 [main] INFO : Štampanje bez dužine na liniji 28 
2017-06-08 02:04:39,958 [main] INFO : Korišćenje vb na liniji 29 
2017-06-08 02:04:39,958 [main] INFO : LOADED 
2017-06-08 02:04:39,958 [main] INFO : Štampanje bez dužine na liniji 29 
2017-06-08 02:04:39,958 [main] INFO : Korišćenje vc na liniji 30 
2017-06-08 02:04:39,958 [main] INFO : LOADED 
2017-06-08 02:04:39,958 [main] INFO : Štampanje bez dužine na liniji 30 
2017-06-08 02:04:39,958 [main] INFO : Tip metode main je void na liniji 45 
2017-06-08 02:04:39,958 [main] INFO : Nije vraćena vrednost 
2017-06-08 02:04:39,963 [main] INFO : 
Globalne promenljive: 12
Lokalne promenljive: 0
Globalne konstante: 2
Globalne i stat.un. f-je: 3
Pozivi f-ja u main: 0
Deklaracije formalnih argumenata: 2
 
2017-06-08 02:04:39,963 [main] INFO : Uspešno parsiranje! 
