2017-05-31 13:04:52,425 [main] INFO : Logging file: C:\Users\Dusan\Desktop\PP1\PP1 projekat\test\program.mj 
2017-05-31 13:04:52,429 [main] INFO : Našao Sabirac na liniji 1 
2017-05-31 13:04:52,430 [main] INFO : Našao osnova na liniji 2 
2017-05-31 13:04:52,430 [main] INFO : Našao qe na liniji 2 
2017-05-31 13:04:52,431 [main] INFO : Našao podosnova na liniji 3 
2017-05-31 13:04:52,431 [main] INFO : Našao uzosnova na liniji 3 
2017-05-31 13:04:52,431 [main] INFO : Našao nizosnova na liniji 4 
2017-05-31 13:04:52,431 [main] INFO : Obrađujemo metodu main 
2017-05-31 13:04:52,431 [main] INFO : Nađena lokalna promenljiva x 
2017-05-31 13:04:52,432 [main] INFO : Nađena lokalna promenljiva y 
2017-05-31 13:04:52,432 [main] INFO : Nađena lokalna promenljiva z 
2017-05-31 13:04:52,432 [main] INFO : Nađena lokalna promenljiva q 
2017-05-31 13:04:52,432 [main] INFO : Nađena lokalna promenljiva z 
2017-05-31 13:04:52,432 [main] INFO : Nađena lokalna promenljiva t 
2017-05-31 13:04:52,432 [main] INFO : Korišćenje osnova na liniji 19 
2017-05-31 13:04:52,434 [main] ERROR: Greška pri parsiranju! 
