2017-06-07 00:49:20,179 [main] INFO : Logging file: C:\Users\Dusan\Desktop\PP1\PP1 projekat\test\program.mj 
2017-06-07 00:49:20,185 [main] INFO : Našao Sabirac na liniji 1 
2017-06-07 00:49:20,185 [main] INFO : Našao osnova na liniji 2 
2017-06-07 00:49:20,185 [main] INFO : Našao qe na liniji 2 
2017-06-07 00:49:20,186 [main] INFO : Našao value na liniji 3 
2017-06-07 00:49:20,186 [main] INFO : Našao i na liniji 4 
2017-06-07 00:49:20,186 [main] INFO : Našao podosnova na liniji 4 
2017-06-07 00:49:20,186 [main] INFO : Našao uzosnova na liniji 4 
2017-06-07 00:49:20,187 [main] INFO : Našao niz na liniji 5 
2017-06-07 00:49:20,187 [main] INFO : Našao niz1 na liniji 5 
2017-06-07 00:49:20,187 [main] INFO : Našao niz2 na liniji 5 
2017-06-07 00:49:20,187 [main] INFO : Nađena promenljiva f-jeqbc 
2017-06-07 00:49:20,187 [main] INFO : Obrađujemo metodu b, broj fp: 2, broj promenljivih: 3 
2017-06-07 00:49:20,188 [main] INFO : Korišćenje x na liniji 11 
2017-06-07 00:49:20,188 [main] INFO : Štampanje bez dužine na liniji 11 
2017-06-07 00:49:20,188 [main] INFO : Korišćenje y na liniji 12 
2017-06-07 00:49:20,188 [main] INFO : Štampanje bez dužine na liniji 12 
2017-06-07 00:49:20,188 [main] INFO : Korišćenje qbc na liniji 13 
2017-06-07 00:49:20,188 [main] INFO : Dodela vrednosti 1 lokalnoj promenljivoj qbc na liniji 13 
2017-06-07 00:49:20,189 [main] INFO : Korišćenje qbc na liniji 14 
2017-06-07 00:49:20,189 [main] INFO : Štampanje bez dužine na liniji 14 
2017-06-07 00:49:20,189 [main] ERROR: Greška na liniji 15:  izraz u return mora da bude ekvivalentan povratnom tipu metode! 
2017-06-07 00:49:20,189 [main] INFO : Obrađujemo metodu a, broj fp: 0, broj promenljivih: 0 
2017-06-07 00:49:20,189 [main] INFO : Štampanje bez dužine na liniji 19 
2017-06-07 00:49:20,189 [main] INFO : Obrađujemo metodu main, broj fp: 0, broj promenljivih: 0 
2017-06-07 00:49:20,190 [main] INFO : Ušli u for na liniji 24 
2017-06-07 00:49:20,190 [main] INFO : Korišćenje i na liniji 24 
2017-06-07 00:49:20,190 [main] INFO : Dodela vrednosti 0 globalnoj promenjivoj i na liniji 24 
2017-06-07 00:49:20,190 [main] INFO : Dodali početak cond na 32 
2017-06-07 00:49:20,190 [main] INFO : Korišćenje i na liniji 24 
2017-06-07 00:49:20,190 [main] INFO : Dodali za jmp to statement prazan skok na adresi 44 
2017-06-07 00:49:20,190 [main] INFO : Dodali početak after na 46 
2017-06-07 00:49:20,190 [main] INFO : Korišćenje i na liniji 24 
2017-06-07 00:49:20,191 [main] INFO : Patchovali jump na 32 na 57 
2017-06-07 00:49:20,191 [main] INFO : Popravili skok na statement na 44da skače na 57 
2017-06-07 00:49:20,191 [main] INFO : Korišćenje i na liniji 25 
2017-06-07 00:49:20,191 [main] INFO : Štampanje bez dužine na liniji 25 
2017-06-07 00:49:20,191 [main] INFO : Krpimo else adrese za sledeći if, iz kraja if grane prvog na početak if drugog 62 
2017-06-07 00:49:20,192 [main] INFO : Korišćenje i na liniji 26 
2017-06-07 00:49:20,192 [main] INFO : Korišćenje i na liniji 26 
2017-06-07 00:49:20,192 [main] INFO : Krpimo and adrese za običan if, van skoka 79 
2017-06-07 00:49:20,192 [main] INFO : Krpimo else adrese za sledeći if, iz kraja if grane prvog na početak if drugog 79 
2017-06-07 00:49:20,192 [main] INFO : Korišćenje i na liniji 28 
2017-06-07 00:49:20,192 [main] INFO : Korišćenje i na liniji 29 
2017-06-07 00:49:20,192 [main] INFO : Štampanje bez dužine na liniji 29 
2017-06-07 00:49:20,192 [main] INFO : Krpimo and adrese za običan if, van skoka 93 
2017-06-07 00:49:20,193 [main] INFO : Krpimo else adrese za sledeći if, iz kraja if grane prvog na početak if drugog 93 
2017-06-07 00:49:20,193 [main] INFO : Korišćenje i na liniji 30 
2017-06-07 00:49:20,193 [main] INFO : Krpimo and adrese za običan if, van skoka 107 
2017-06-07 00:49:20,193 [main] INFO : Ubacili skok na 46sa 110 
2017-06-07 00:49:20,194 [main] ERROR: Neuspešno parsiranje! 
