2017-06-01 21:26:54,499 [main] INFO : Logging file: C:\Users\Dusan\Desktop\PP1\PP1 projekat\test\program.mj 
2017-06-01 21:26:54,504 [main] INFO : Našao Sabirac na liniji 1 
2017-06-01 21:26:54,504 [main] INFO : Našao osnova na liniji 2 
2017-06-01 21:26:54,505 [main] INFO : Našao qe na liniji 2 
2017-06-01 21:26:54,505 [main] INFO : Našao podosnova na liniji 3 
2017-06-01 21:26:54,505 [main] INFO : Našao uzosnova na liniji 3 
2017-06-01 21:26:54,505 [main] INFO : Našao niz na liniji 4 
2017-06-01 21:26:54,505 [main] INFO : Našao niz1 na liniji 4 
2017-06-01 21:26:54,505 [main] INFO : Našao niz2 na liniji 4 
2017-06-01 21:26:54,506 [main] INFO : Obrađujemo metodu main 
2017-06-01 21:26:54,506 [main] INFO : Nađena lokalna promenljiva x 
2017-06-01 21:26:54,506 [main] INFO : Nađena lokalna promenljiva y 
2017-06-01 21:26:54,506 [main] INFO : Nađena lokalna promenljiva z 
2017-06-01 21:26:54,506 [main] INFO : Nađena lokalna promenljiva q 
2017-06-01 21:26:54,507 [main] INFO : Nađena lokalna promenljiva z 
2017-06-01 21:26:54,507 [main] INFO : Nađena lokalna promenljiva t 
2017-06-01 21:26:54,508 [main] INFO : Korišćenje podosnova na liniji 17 
2017-06-01 21:26:54,508 [main] INFO : Dodela vrednosti 5 globalnoj promenjivoj podosnova na liniji 17 
2017-06-01 21:26:54,508 [main] INFO : Korišćenje niz na liniji 18 
2017-06-01 21:26:54,508 [main] INFO : Inicijalizacija niza na liniji 18 
2017-06-01 21:26:54,508 [main] INFO : Dodela vrednosti niz na liniji 18 
2017-06-01 21:26:54,508 [main] INFO : Korišćenje podosnova na liniji 19 
2017-06-01 21:26:54,509 [main] INFO : Štampanje bez dužine na liniji 19 
2017-06-01 21:26:54,509 [main] INFO : Uspešno parsiranje! 
2017-06-01 21:26:54,513 [main] INFO : 
Globalne promenljive: 5
Lokalne promenljive: 6
Globalne konstante: 2
 
