2017-06-06 00:59:15,149 [main] INFO : Logging file: C:\Users\Dusan\Desktop\PP1\PP1 projekat\test\program.mj 
2017-06-06 00:59:15,154 [main] INFO : Našao Sabirac na liniji 1 
2017-06-06 00:59:15,155 [main] INFO : Našao osnova na liniji 2 
2017-06-06 00:59:15,155 [main] INFO : Našao qe na liniji 2 
2017-06-06 00:59:15,155 [main] ERROR: Greška na liniji 3: konstanti qqqq se dodeljuje vrednost pogrešnog tipa int 
2017-06-06 00:59:15,155 [main] INFO : Našao qqqq na liniji 3 
2017-06-06 00:59:15,155 [main] INFO : Našao value na liniji 4 
2017-06-06 00:59:15,155 [main] INFO : Našao podosnova na liniji 5 
2017-06-06 00:59:15,156 [main] INFO : Našao uzosnova na liniji 5 
2017-06-06 00:59:15,156 [main] INFO : Našao niz na liniji 6 
2017-06-06 00:59:15,157 [main] INFO : Našao niz1 na liniji 6 
2017-06-06 00:59:15,157 [main] INFO : Našao niz2 na liniji 6 
2017-06-06 00:59:15,158 [main] INFO : Nađena promenljiva f-jeqbc 
2017-06-06 00:59:15,158 [main] INFO : Obrađujemo metodu b, broj fp: 2, broj promenljivih: 3 
2017-06-06 00:59:15,158 [main] INFO : Korišćenje x na liniji 12 
2017-06-06 00:59:15,159 [main] INFO : Štampanje bez dužine na liniji 12 
2017-06-06 00:59:15,159 [main] INFO : Korišćenje y na liniji 13 
2017-06-06 00:59:15,159 [main] INFO : Štampanje bez dužine na liniji 13 
2017-06-06 00:59:15,159 [main] INFO : Korišćenje qbc na liniji 14 
2017-06-06 00:59:15,159 [main] INFO : Dodela vrednosti 1 lokalnoj promenljivoj qbc na liniji 14 
2017-06-06 00:59:15,159 [main] INFO : Korišćenje qbc na liniji 15 
2017-06-06 00:59:15,159 [main] INFO : Štampanje bez dužine na liniji 15 
2017-06-06 00:59:15,160 [main] INFO : Obrađujemo metodu a, broj fp: 0, broj promenljivih: 0 
2017-06-06 00:59:15,160 [main] INFO : Štampanje bez dužine na liniji 19 
2017-06-06 00:59:15,160 [main] INFO : Obrađujemo metodu main, broj fp: 0, broj promenljivih: 0 
2017-06-06 00:59:15,160 [main] INFO : Korišćenje podosnova na liniji 23 
2017-06-06 00:59:15,160 [main] INFO : Dodela vrednosti 2 globalnoj promenjivoj podosnova na liniji 23 
2017-06-06 00:59:15,161 [main] INFO : Korišćenje value na liniji 25 
2017-06-06 00:59:15,161 [main] INFO : Dodela vrednosti 0 globalnoj promenjivoj value na liniji 25 
2017-06-06 00:59:15,161 [main] INFO : Krpimo else adrese za sledeći if, iz kraja if grane prvog na početak if drugog 35 
2017-06-06 00:59:15,161 [main] INFO : Korišćenje value na liniji 27 
2017-06-06 00:59:15,161 [main] INFO : Bool u if 
2017-06-06 00:59:15,161 [main] INFO : Korišćenje podosnova na liniji 28 
2017-06-06 00:59:15,161 [main] INFO : Štampanje bez dužine na liniji 28 
2017-06-06 00:59:15,162 [main] INFO : Krpimo and adrese za običan if, van skoka 47 
2017-06-06 00:59:15,162 [main] ERROR: Neuspešno parsiranje! 
