2017-05-23 11:58:10,625 [main] INFO : Logging file: C:\Users\Dusan\Desktop\PP1\PP1 projekat\test\program.txt 
2017-05-23 11:58:10,630 [main] INFO : Nađena glavna klasa Sabirac! 
2017-05-23 11:58:10,630 [main] INFO : Deklarisana konstanta osnova na liniji 2! 
2017-05-23 11:58:10,630 [main] INFO : Deklarisana globalna promenljiva podosnova na liniji 3 
2017-05-23 11:58:10,631 [main] INFO : Deklarisana globalna promenljiva nadosnova na liniji 3 
2017-05-23 11:58:10,631 [main] INFO : Deklarisan globalni niz nizosnova na liniji 4 
2017-05-23 11:58:10,631 [main] INFO : Obrađujemo metodu saberi na liniji 6 
2017-05-23 11:58:10,631 [main] INFO : Kraj obrade metode saberi na liniji 9 
2017-05-23 11:58:10,631 [main] INFO : Obrađujemo metodu main na liniji 10 
2017-05-23 11:58:10,633 [main] INFO : Deklarisana promenljiva r metode main na liniji 11 
2017-05-23 11:58:10,633 [main] INFO : Pronađena dodela vrednosti promenljivoj r na liniji 13 
2017-05-23 11:58:10,634 [main] INFO : Štampanje vrednosti na liniji 14 
2017-05-23 11:58:10,634 [main] INFO : Kraj obrade metode main na liniji 15 
2017-05-23 11:58:10,635 [main] INFO : Uspešno parsiranje! 
