2017-06-21 02:32:25,303 [main] INFO : Logging file: C:\Users\Dusan\Desktop\PP1\PP1 projekat\test\program.mj 
2017-06-21 02:32:25,310 [main] INFO : Našao Sabirac na liniji 1 
2017-06-21 02:32:25,310 [main] INFO : Našao a na liniji 7 
2017-06-21 02:32:25,310 [main] INFO : Adresa virtuelne tabele je 0 
2017-06-21 02:32:25,311 [main] INFO : Obrađujemo klasu B na liniji 8 
2017-06-21 02:32:25,311 [main] INFO : Obrađujemo promeljivu classA u klasi na liniji 9 
2017-06-21 02:32:25,311 [main] INFO : Obrađujemo promeljivu classB u klasi na liniji 9 
2017-06-21 02:32:25,312 [main] INFO : Broj form. par za metodu wo je 1 na liniji 11 
2017-06-21 02:32:25,312 [main] INFO : Obrađujemo metodu wo, broj fp: 1, broj promenljivih: 2 
2017-06-21 02:32:25,314 [main] INFO : Korišćenje classA na liniji 12 
2017-06-21 02:32:25,314 [main] INFO : Korišćenje x na liniji 12 
2017-06-21 02:32:25,314 [main] INFO : Štampanje bez dužine na liniji 12 
2017-06-21 02:32:25,314 [main] INFO : Tip metode wo je void na liniji 13 
2017-06-21 02:32:25,314 [main] INFO : Nije vraćena vrednost 
2017-06-21 02:32:25,314 [main] INFO : Broj form. par za metodu wt je 0 na liniji 15 
2017-06-21 02:32:25,314 [main] INFO : Obrađujemo metodu wt, broj fp: 0, broj promenljivih: 1 
2017-06-21 02:32:25,315 [main] INFO : Korišćenje classA na liniji 16 
2017-06-21 02:32:25,315 [main] INFO : Štampanje bez dužine na liniji 16 
2017-06-21 02:32:25,315 [main] INFO : Tip metode wt je void na liniji 17 
2017-06-21 02:32:25,315 [main] INFO : Nije vraćena vrednost 
2017-06-21 02:32:25,315 [main] INFO : Kraj obrade klase B 
2017-06-21 02:32:25,316 [main] INFO : Našao b na liniji 22 
2017-06-21 02:32:25,316 [main] INFO : Broj form. par za metodu main je 0 na liniji 57 
2017-06-21 02:32:25,316 [main] INFO : Obrađujemo metodu main, broj fp: 0, broj promenljivih: 0 
2017-06-21 02:32:25,316 [main] INFO : Korišćenje b na liniji 58 
2017-06-21 02:32:25,316 [main] INFO : Inicijalizacija klase na liniji 58 
2017-06-21 02:32:25,316 [main] INFO : Korišćenje b na liniji 59 
2017-06-21 02:32:25,317 [main] INFO : Tražimo element classA klase b na liniji 59 
2017-06-21 02:32:25,317 [main] INFO : Inicijalizacija niza na liniji 59 
2017-06-21 02:32:25,317 [main] INFO : Korišćenje b na liniji 60 
2017-06-21 02:32:25,317 [main] INFO : Tražimo element classA klase b na liniji 60 
2017-06-21 02:32:25,317 [main] INFO : Korišćenje b na liniji 61 
2017-06-21 02:32:25,318 [main] INFO : Tražimo element classA klase b na liniji 61 
2017-06-21 02:32:25,318 [main] INFO : Štampanje bez dužine na liniji 61 
2017-06-21 02:32:25,318 [main] INFO : Korišćenje b na liniji 62 
2017-06-21 02:32:25,318 [main] INFO : Tražimo element wt klase b na liniji 62 
2017-06-21 02:32:25,318 [main] INFO : Smešten this  
2017-06-21 02:32:25,318 [main] INFO : Smeštena vrednost 2 
2017-06-21 02:32:25,319 [main] INFO : Tip metode main je void na liniji 64 
2017-06-21 02:32:25,319 [main] INFO : Nije vraćena vrednost 
2017-06-21 02:32:25,321 [main] INFO : 
Globalne promenljive: 2
Lokalne promenljive: 0
Globalne konstante: 0
Globalne i stat.un. f-je: 3
Pozivi f-ja u main: 0
Deklaracije formalnih argumenata: 1
 
2017-06-21 02:32:25,322 [main] INFO : Uspešno parsiranje! 
