2017-06-02 14:01:09,426 [main] INFO : Logging file: C:\Users\Dusan\Desktop\PP1\PP1 projekat\test\program.mj 
2017-06-02 14:01:09,445 [main] INFO : Našao Sabirac na liniji 1 
2017-06-02 14:01:09,446 [main] INFO : Našao osnova na liniji 2 
2017-06-02 14:01:09,446 [main] INFO : Našao qe na liniji 2 
2017-06-02 14:01:09,446 [main] INFO : Našao podosnova na liniji 3 
2017-06-02 14:01:09,446 [main] INFO : Našao uzosnova na liniji 3 
2017-06-02 14:01:09,447 [main] INFO : Našao niz na liniji 4 
2017-06-02 14:01:09,447 [main] INFO : Našao niz1 na liniji 4 
2017-06-02 14:01:09,447 [main] INFO : Našao niz2 na liniji 4 
2017-06-02 14:01:09,447 [main] INFO : Obrađujemo metodu a 
2017-06-02 14:01:09,448 [main] INFO : Štampanje bez dužine na liniji 10 
2017-06-02 14:01:09,450 [main] INFO : Obrađujemo metodu main 
2017-06-02 14:01:09,450 [main] INFO : Nađena lokalna promenljiva x 
2017-06-02 14:01:09,450 [main] INFO : Nađena lokalna promenljiva y 
2017-06-02 14:01:09,450 [main] INFO : Nađena lokalna promenljiva z 
2017-06-02 14:01:09,450 [main] INFO : Nađena lokalna promenljiva q 
2017-06-02 14:01:09,451 [main] INFO : Nađena lokalna promenljiva z 
2017-06-02 14:01:09,451 [main] INFO : Nađena lokalna promenljiva t 
2017-06-02 14:01:09,451 [main] INFO : Korišćenje podosnova na liniji 19 
2017-06-02 14:01:09,451 [main] INFO : Dodela vrednosti 4 globalnoj promenjivoj podosnova na liniji 19 
2017-06-02 14:01:09,451 [main] INFO : Korišćenje a na liniji 20 
2017-06-02 14:01:09,452 [main] INFO : Uspešno parsiranje! 
2017-06-02 14:01:09,456 [main] INFO : 
Globalne promenljive: 5
Lokalne promenljive: 6
Globalne konstante: 2
Globalne i stat.un. f-je: 2
Pozivi f-ja u main: 0
Deklaracije formalnih argumenata: 0
 
