2017-06-05 19:55:12,663 [main] INFO : Logging file: C:\Users\Dusan\Desktop\PP1\PP1 projekat\test\program.mj 
2017-06-05 19:55:12,663 [main] INFO : Našao Sabirac na liniji 1 
2017-06-05 19:55:12,663 [main] INFO : Našao osnova na liniji 2 
2017-06-05 19:55:12,663 [main] INFO : Našao qe na liniji 2 
2017-06-05 19:55:12,679 [main] INFO : Našao podosnova na liniji 3 
2017-06-05 19:55:12,679 [main] INFO : Našao uzosnova na liniji 3 
2017-06-05 19:55:12,679 [main] INFO : Našao niz na liniji 4 
2017-06-05 19:55:12,679 [main] INFO : Našao niz1 na liniji 4 
2017-06-05 19:55:12,679 [main] INFO : Našao niz2 na liniji 4 
2017-06-05 19:55:12,679 [main] INFO : Nađena promenljiva f-jeqbc 
2017-06-05 19:55:12,679 [main] INFO : Obrađujemo metodu b, broj fp: 2, broj promenljivih: 3 
2017-06-05 19:55:12,679 [main] INFO : Korišćenje x na liniji 10 
2017-06-05 19:55:12,679 [main] INFO : Štampanje bez dužine na liniji 10 
2017-06-05 19:55:12,679 [main] INFO : Korišćenje y na liniji 11 
2017-06-05 19:55:12,679 [main] INFO : Štampanje bez dužine na liniji 11 
2017-06-05 19:55:12,679 [main] INFO : Korišćenje qbc na liniji 12 
2017-06-05 19:55:12,679 [main] INFO : Dodela vrednosti 1 lokalnoj promenljivoj qbc na liniji 12 
2017-06-05 19:55:12,679 [main] INFO : Korišćenje qbc na liniji 13 
2017-06-05 19:55:12,679 [main] INFO : Štampanje bez dužine na liniji 13 
2017-06-05 19:55:12,679 [main] INFO : Obrađujemo metodu a, broj fp: 0, broj promenljivih: 0 
2017-06-05 19:55:12,679 [main] INFO : Štampanje bez dužine na liniji 17 
2017-06-05 19:55:12,679 [main] INFO : Obrađujemo metodu main, broj fp: 0, broj promenljivih: 0 
2017-06-05 19:55:12,679 [main] INFO : Ušli u for na liniji 22 
2017-06-05 19:55:12,679 [main] INFO : Štampanje bez dužine na liniji 23 
2017-06-05 19:55:12,679 [main] INFO : Korišćenje podosnova na liniji 25 
2017-06-05 19:55:12,679 [main] INFO : Štampanje bez dužine na liniji 25 
2017-06-05 19:55:12,679 [main] INFO : 
Globalne promenljive: 5
Lokalne promenljive: 0
Globalne konstante: 2
Globalne i stat.un. f-je: 3
Pozivi f-ja u main: 0
Deklaracije formalnih argumenata: 2
 
2017-06-05 19:55:12,679 [main] INFO : Uspešno parsiranje! 
