2017-06-01 16:06:46,898 [main] INFO : Logging file: C:\Users\Dusan\Desktop\PP1\PP1 projekat\test\program.mj 
2017-06-01 16:06:46,903 [main] INFO : Našao Sabirac na liniji 1 
2017-06-01 16:06:46,904 [main] INFO : Našao osnova na liniji 2 
2017-06-01 16:06:46,905 [main] INFO : Našao qe na liniji 2 
2017-06-01 16:06:46,905 [main] INFO : Našao podosnova na liniji 3 
2017-06-01 16:06:46,905 [main] INFO : Našao uzosnova na liniji 3 
2017-06-01 16:06:46,905 [main] INFO : Našao niz na liniji 4 
2017-06-01 16:06:46,906 [main] INFO : Obrađujemo metodu main 
2017-06-01 16:06:46,906 [main] INFO : Nađena lokalna promenljiva x 
2017-06-01 16:06:46,906 [main] INFO : Nađena lokalna promenljiva y 
2017-06-01 16:06:46,906 [main] INFO : Nađena lokalna promenljiva z 
2017-06-01 16:06:46,908 [main] INFO : Nađena lokalna promenljiva q 
2017-06-01 16:06:46,908 [main] INFO : Nađena lokalna promenljiva z 
2017-06-01 16:06:46,908 [main] INFO : Nađena lokalna promenljiva t 
2017-06-01 16:06:46,908 [main] INFO : Korišćenje niz na liniji 17 
2017-06-01 16:06:46,908 [main] INFO : Inicijalizacija niza na liniji 17 
2017-06-01 16:06:46,909 [main] INFO : Dodela vrednosti niz na liniji 17 
2017-06-01 16:06:46,909 [main] INFO : Korišćenje uzosnova na liniji 18 
2017-06-01 16:06:46,909 [main] INFO : Dodela vrednosti 3 globalnoj promenjivoj uzosnova na liniji 18 
2017-06-01 16:06:46,909 [main] INFO : Korišćenje uzosnova na liniji 19 
2017-06-01 16:06:46,909 [main] INFO : Štampanje bez dužine na liniji 19 
2017-06-01 16:06:46,910 [main] INFO : Uspešno parsiranje! 
2017-06-01 16:06:46,914 [main] INFO : 
Globalne promenljive: 3
Lokalne promenljive: 6
Globalne konstante: 2
 
