2017-06-09 21:45:19,093 [main] INFO : Logging file: C:\Users\Dusan\Desktop\PP1\PP1 projekat\test\program.mj 
2017-06-09 21:45:19,093 [main] INFO : Našao Sabirac na liniji 1 
2017-06-09 21:45:19,109 [main] INFO : Našao osnova na liniji 2 
2017-06-09 21:45:19,109 [main] INFO : Našao qe na liniji 2 
2017-06-09 21:45:19,109 [main] INFO : Našao va na liniji 3 
2017-06-09 21:45:19,109 [main] INFO : Našao vb na liniji 3 
2017-06-09 21:45:19,109 [main] INFO : Našao vc na liniji 3 
2017-06-09 21:45:19,109 [main] INFO : Našao i na liniji 4 
2017-06-09 21:45:19,109 [main] INFO : Našao podosnova na liniji 4 
2017-06-09 21:45:19,109 [main] INFO : Našao uzosnova na liniji 4 
2017-06-09 21:45:19,109 [main] INFO : Našao niz na liniji 5 
2017-06-09 21:45:19,109 [main] INFO : Našao niz1 na liniji 5 
2017-06-09 21:45:19,109 [main] INFO : Našao niz2 na liniji 5 
2017-06-09 21:45:19,109 [main] INFO : Obrađujemo metodu a, broj fp: 3, broj promenljivih: 3 
2017-06-09 21:45:19,109 [main] INFO : Korišćenje y na liniji 9 
2017-06-09 21:45:19,109 [main] INFO : Korišćenje z na liniji 10 
2017-06-09 21:45:19,109 [main] INFO : Korišćenje x na liniji 11 
2017-06-09 21:45:19,109 [main] INFO : Štampanje bez dužine na liniji 11 
2017-06-09 21:45:19,109 [main] INFO : Korišćenje y na liniji 12 
2017-06-09 21:45:19,109 [main] INFO : Štampanje bez dužine na liniji 12 
2017-06-09 21:45:19,109 [main] INFO : Korišćenje z na liniji 13 
2017-06-09 21:45:19,109 [main] INFO : Štampanje bez dužine na liniji 13 
2017-06-09 21:45:19,109 [main] INFO : Tip metode a je void na liniji 14 
2017-06-09 21:45:19,109 [main] INFO : Nije vraćena vrednost 
2017-06-09 21:45:19,109 [main] INFO : Obrađujemo metodu main, broj fp: 0, broj promenljivih: 0 
2017-06-09 21:45:19,109 [main] INFO : Korišćenje va na liniji 17 
2017-06-09 21:45:19,109 [main] INFO : Korišćenje a na liniji 19 
2017-06-09 21:45:19,109 [main] INFO : Nađen poziv f-je a na liniji 19 
2017-06-09 21:45:19,109 [main] ERROR: Greška na liniji 19: poziv f-je a sa pogrešnim parametrima 
2017-06-09 21:45:19,109 [main] ERROR: Greška na liniji 19: Loš broj parametara pri pozivu f-je! 
2017-06-09 21:45:19,109 [main] INFO : Tip metode main je void na liniji 23 
2017-06-09 21:45:19,109 [main] INFO : Nije vraćena vrednost 
2017-06-09 21:45:19,109 [main] ERROR: Neuspešno parsiranje! 
