2017-06-01 16:25:14,421 [main] INFO : Logging file: C:\Users\Dusan\Desktop\PP1\PP1 projekat\test\program.mj 
2017-06-01 16:25:14,426 [main] INFO : Našao Sabirac na liniji 1 
2017-06-01 16:25:14,426 [main] INFO : Našao osnova na liniji 2 
2017-06-01 16:25:14,427 [main] INFO : Našao qe na liniji 2 
2017-06-01 16:25:14,427 [main] INFO : Našao podosnova na liniji 3 
2017-06-01 16:25:14,427 [main] INFO : Našao uzosnova na liniji 3 
2017-06-01 16:25:14,427 [main] INFO : Našao niz na liniji 4 
2017-06-01 16:25:14,427 [main] INFO : Obrađujemo metodu main 
2017-06-01 16:25:14,428 [main] INFO : Nađena lokalna promenljiva x 
2017-06-01 16:25:14,428 [main] INFO : Nađena lokalna promenljiva y 
2017-06-01 16:25:14,428 [main] INFO : Nađena lokalna promenljiva z 
2017-06-01 16:25:14,430 [main] INFO : Nađena lokalna promenljiva q 
2017-06-01 16:25:14,430 [main] INFO : Nađena lokalna promenljiva z 
2017-06-01 16:25:14,430 [main] INFO : Nađena lokalna promenljiva t 
2017-06-01 16:25:14,430 [main] INFO : Korišćenje niz na liniji 17 
2017-06-01 16:25:14,430 [main] INFO : Inicijalizacija niza na liniji 17 
2017-06-01 16:25:14,431 [main] INFO : Dodela vrednosti niz na liniji 17 
2017-06-01 16:25:14,431 [main] INFO : Uspešno parsiranje! 
2017-06-01 16:25:14,433 [main] INFO : 
Globalne promenljive: 3
Lokalne promenljive: 6
Globalne konstante: 2
 
