2017-06-07 16:45:45,065 [main] INFO : Logging file: C:\Users\Dusan\Desktop\PP1\PP1 projekat\test\program.mj 
2017-06-07 16:45:45,071 [main] INFO : Našao Sabirac na liniji 1 
2017-06-07 16:45:45,071 [main] INFO : Našao osnova na liniji 2 
2017-06-07 16:45:45,071 [main] INFO : Našao qe na liniji 2 
2017-06-07 16:45:45,072 [main] INFO : Našao q na liniji 3 
2017-06-07 16:45:45,072 [main] INFO : Našao b na liniji 3 
2017-06-07 16:45:45,072 [main] INFO : Našao c na liniji 3 
2017-06-07 16:45:45,072 [main] INFO : Našao i na liniji 4 
2017-06-07 16:45:45,072 [main] INFO : Našao podosnova na liniji 4 
2017-06-07 16:45:45,072 [main] INFO : Našao uzosnova na liniji 4 
2017-06-07 16:45:45,073 [main] INFO : Našao niz na liniji 5 
2017-06-07 16:45:45,073 [main] INFO : Našao niz1 na liniji 5 
2017-06-07 16:45:45,073 [main] INFO : Našao niz2 na liniji 5 
2017-06-07 16:45:45,073 [main] INFO : Nađena promenljiva f-je qbc 
2017-06-07 16:45:45,074 [main] INFO : Obrađujemo metodu b, broj fp: 2, broj promenljivih: 3 
2017-06-07 16:45:45,074 [main] INFO : Korišćenje qbc na liniji 11 
2017-06-07 16:45:45,074 [main] INFO : Korišćenje x na liniji 11 
2017-06-07 16:45:45,075 [main] INFO : Dodela vrednosti 0 lokalnoj promenljivoj qbc na liniji 11 
2017-06-07 16:45:45,075 [main] INFO : Korišćenje qbc na liniji 12 
2017-06-07 16:45:45,075 [main] INFO : Korišćenje qbc na liniji 13 
2017-06-07 16:45:45,075 [main] INFO : Tip metode b nije void na liniji 14 
2017-06-07 16:45:45,075 [main] INFO : Vraćena vrednost 
2017-06-07 16:45:45,075 [main] INFO : Obrađujemo metodu a, broj fp: 0, broj promenljivih: 0 
2017-06-07 16:45:45,075 [main] INFO : Štampanje bez dužine na liniji 17 
2017-06-07 16:45:45,075 [main] INFO : Tip metode a je void na liniji 18 
2017-06-07 16:45:45,076 [main] INFO : Nije vraćena vrednost 
2017-06-07 16:45:45,076 [main] INFO : Obrađujemo metodu main, broj fp: 0, broj promenljivih: 0 
2017-06-07 16:45:45,076 [main] INFO : Korišćenje q na liniji 22 
2017-06-07 16:45:45,076 [main] INFO : Korišćenje b na liniji 22 
2017-06-07 16:45:45,076 [main] INFO : Dodela vrednosti 0 globalnoj promenjivoj q na liniji 22 
2017-06-07 16:45:45,076 [main] INFO : Korišćenje q na liniji 24 
2017-06-07 16:45:45,076 [main] INFO : Štampanje bez dužine na liniji 24 
2017-06-07 16:45:45,077 [main] INFO : Korišćenje c na liniji 25 
2017-06-07 16:45:45,077 [main] INFO : Štampanje bez dužine na liniji 25 
2017-06-07 16:45:45,077 [main] INFO : Tip metode main je void na liniji 40 
2017-06-07 16:45:45,077 [main] INFO : Nije vraćena vrednost 
2017-06-07 16:45:45,082 [main] INFO : 
Globalne promenljive: 9
Lokalne promenljive: 0
Globalne konstante: 2
Globalne i stat.un. f-je: 3
Pozivi f-ja u main: 0
Deklaracije formalnih argumenata: 2
 
2017-06-07 16:45:45,082 [main] INFO : Uspešno parsiranje! 
