2017-06-04 02:25:57,740 [main] INFO : Logging file: C:\Users\Dusan\Desktop\PP1\PP1 projekat\test\program.mj 
2017-06-04 02:25:57,745 [main] INFO : Našao Sabirac na liniji 1 
2017-06-04 02:25:57,746 [main] INFO : Našao osnova na liniji 2 
2017-06-04 02:25:57,746 [main] INFO : Našao qe na liniji 2 
2017-06-04 02:25:57,746 [main] INFO : Našao podosnova na liniji 3 
2017-06-04 02:25:57,746 [main] INFO : Našao uzosnova na liniji 3 
2017-06-04 02:25:57,747 [main] INFO : Našao niz na liniji 4 
2017-06-04 02:25:57,747 [main] INFO : Našao niz1 na liniji 4 
2017-06-04 02:25:57,747 [main] INFO : Našao niz2 na liniji 4 
2017-06-04 02:25:57,747 [main] INFO : Nađena promenljiva f-jeqbc 
2017-06-04 02:25:57,748 [main] INFO : Obrađujemo metodu b, broj fp: 2, broj promenljivih: 3 
2017-06-04 02:25:57,748 [main] INFO : Korišćenje x na liniji 10 
2017-06-04 02:25:57,748 [main] INFO : Štampanje bez dužine na liniji 10 
2017-06-04 02:25:57,748 [main] INFO : Korišćenje y na liniji 11 
2017-06-04 02:25:57,749 [main] INFO : Štampanje bez dužine na liniji 11 
2017-06-04 02:25:57,749 [main] INFO : Korišćenje qbc na liniji 12 
2017-06-04 02:25:57,749 [main] INFO : Dodela vrednosti 1 lokalnoj promenljivoj qbc na liniji 12 
2017-06-04 02:25:57,749 [main] INFO : Korišćenje qbc na liniji 13 
2017-06-04 02:25:57,749 [main] INFO : Štampanje bez dužine na liniji 13 
2017-06-04 02:25:57,750 [main] INFO : Obrađujemo metodu a, broj fp: 0, broj promenljivih: 0 
2017-06-04 02:25:57,750 [main] INFO : Štampanje bez dužine na liniji 17 
2017-06-04 02:25:57,750 [main] INFO : Obrađujemo metodu main, broj fp: 0, broj promenljivih: 0 
2017-06-04 02:25:57,750 [main] INFO : CondFact dostignut na 29 na liniji 23 
2017-06-04 02:25:57,750 [main] INFO : Kod: 3 
2017-06-04 02:25:57,750 [main] INFO : CondFact 
2017-06-04 02:25:57,751 [main] INFO : CondFact dostignut na 34 na liniji 23 
2017-06-04 02:25:57,751 [main] INFO : Kod: 3 
2017-06-04 02:25:57,751 [main] INFO : Condition 
2017-06-04 02:25:57,751 [main] INFO : Štampanje bez dužine na liniji 24 
2017-06-04 02:25:57,751 [main] INFO : Veličina: 30 a sada: 40 
2017-06-04 02:25:57,751 [main] INFO : Štampanje bez dužine na liniji 27 
2017-06-04 02:25:57,752 [main] INFO : Uspešno parsiranje! 
2017-06-04 02:25:57,756 [main] INFO : 
Globalne promenljive: 5
Lokalne promenljive: 0
Globalne konstante: 2
Globalne i stat.un. f-je: 3
Pozivi f-ja u main: 0
Deklaracije formalnih argumenata: 2
 
