2017-06-19 01:04:37,792 [main] INFO : Logging file: C:\Users\Dusan\Desktop\PP1\PP1 projekat\test\program.mj 
2017-06-19 01:04:37,799 [main] INFO : Našao Sabirac na liniji 1 
2017-06-19 01:04:37,799 [main] INFO : Našao osnova na liniji 2 
2017-06-19 01:04:37,799 [main] INFO : Našao qe na liniji 2 
2017-06-19 01:04:37,799 [main] INFO : Našao va na liniji 3 
2017-06-19 01:04:37,800 [main] INFO : Našao vb na liniji 3 
2017-06-19 01:04:37,800 [main] INFO : Našao vc na liniji 3 
2017-06-19 01:04:37,800 [main] INFO : Našao i na liniji 4 
2017-06-19 01:04:37,800 [main] INFO : Našao podosnova na liniji 4 
2017-06-19 01:04:37,800 [main] INFO : Našao uzosnova na liniji 4 
2017-06-19 01:04:37,801 [main] INFO : Našao niz na liniji 5 
2017-06-19 01:04:37,803 [main] INFO : Našao niz1 na liniji 5 
2017-06-19 01:04:37,803 [main] INFO : Našao niz2 na liniji 5 
2017-06-19 01:04:37,804 [main] INFO : Nađena promenljiva f-je i 
2017-06-19 01:04:37,804 [main] INFO : Obrađujemo metodu printArray, broj fp: 2, broj promenljivih: 3 
2017-06-19 01:04:37,804 [main] INFO : Ušli u for na liniji 17 
2017-06-19 01:04:37,805 [main] INFO : Korišćenje i na liniji 17 
2017-06-19 01:04:37,805 [main] INFO : Dodali početak cond na 5 
2017-06-19 01:04:37,805 [main] INFO : Korišćenje i na liniji 17 
2017-06-19 01:04:37,805 [main] INFO : Korišćenje n na liniji 17 
2017-06-19 01:04:37,805 [main] INFO : Dodali za jmp to statement prazan skok na adresi 11 
2017-06-19 01:04:37,805 [main] INFO : Dodali početak after na 13 
2017-06-19 01:04:37,805 [main] INFO : Korišćenje i na liniji 17 
2017-06-19 01:04:37,806 [main] INFO : Patchovali jump na 5 na 20 
2017-06-19 01:04:37,806 [main] INFO : Popravili skok na statement na 11da skače na 20 
2017-06-19 01:04:37,806 [main] INFO : Korišćenje array na liniji 18 
2017-06-19 01:04:37,806 [main] INFO : Korišćenje i na liniji 18 
2017-06-19 01:04:37,806 [main] INFO : Štampanje bez dužine na liniji 18 
2017-06-19 01:04:37,806 [main] INFO : Ubacili skok na 13 sa 28 
2017-06-19 01:04:37,806 [main] INFO : Tip metode printArray je void na liniji 19 
2017-06-19 01:04:37,806 [main] INFO : Nije vraćena vrednost 
2017-06-19 01:04:37,807 [main] INFO : Obrađujemo metodu a, broj fp: 3, broj promenljivih: 3 
2017-06-19 01:04:37,807 [main] INFO : Korišćenje y na liniji 22 
2017-06-19 01:04:37,807 [main] INFO : Korišćenje z na liniji 23 
2017-06-19 01:04:37,807 [main] INFO : Korišćenje x na liniji 24 
2017-06-19 01:04:37,807 [main] INFO : Štampanje bez dužine na liniji 24 
2017-06-19 01:04:37,807 [main] INFO : Korišćenje y na liniji 25 
2017-06-19 01:04:37,807 [main] INFO : Štampanje bez dužine na liniji 25 
2017-06-19 01:04:37,807 [main] INFO : Korišćenje z na liniji 26 
2017-06-19 01:04:37,807 [main] INFO : Štampanje bez dužine na liniji 26 
2017-06-19 01:04:37,808 [main] INFO : Tip metode a je void na liniji 27 
2017-06-19 01:04:37,808 [main] INFO : Nije vraćena vrednost 
2017-06-19 01:04:37,808 [main] INFO : Obrađujemo metodu x, broj fp: 0, broj promenljivih: 0 
2017-06-19 01:04:37,808 [main] INFO : Tip metode x nije void na liniji 31 
2017-06-19 01:04:37,808 [main] INFO : Vraćena vrednost 
2017-06-19 01:04:37,808 [main] INFO : Obrađujemo metodu pp, broj fp: 1, broj promenljivih: 1 
2017-06-19 01:04:37,808 [main] INFO : Korišćenje i na liniji 34 
2017-06-19 01:04:37,808 [main] INFO : Štampanje bez dužine na liniji 34 
2017-06-19 01:04:37,808 [main] INFO : Tip metode pp je void na liniji 35 
2017-06-19 01:04:37,809 [main] INFO : Nije vraćena vrednost 
2017-06-19 01:04:37,809 [main] INFO : Nađena promenljiva f-je i 
2017-06-19 01:04:37,809 [main] INFO : Obrađujemo metodu var, broj fp: 2, broj promenljivih: 3 
2017-06-19 01:04:37,809 [main] INFO : Ušli u for na liniji 40 
2017-06-19 01:04:37,809 [main] INFO : Korišćenje i na liniji 40 
2017-06-19 01:04:37,809 [main] INFO : Dodali početak cond na 71 
2017-06-19 01:04:37,809 [main] INFO : Korišćenje i na liniji 40 
2017-06-19 01:04:37,809 [main] INFO : Korišćenje n na liniji 40 
2017-06-19 01:04:37,809 [main] INFO : Dodali za jmp to statement prazan skok na adresi 77 
2017-06-19 01:04:37,810 [main] INFO : Dodali početak after na 79 
2017-06-19 01:04:37,810 [main] INFO : Korišćenje i na liniji 40 
2017-06-19 01:04:37,810 [main] INFO : Patchovali jump na 71 na 86 
2017-06-19 01:04:37,810 [main] INFO : Popravili skok na statement na 77da skače na 86 
2017-06-19 01:04:37,810 [main] INFO : Korišćenje va na liniji 41 
2017-06-19 01:04:37,810 [main] INFO : Korišćenje i na liniji 41 
2017-06-19 01:04:37,810 [main] INFO : Štampanje bez dužine na liniji 41 
2017-06-19 01:04:37,810 [main] INFO : Ubacili skok na 79 sa 94 
2017-06-19 01:04:37,810 [main] INFO : Tip metode var je void na liniji 43 
2017-06-19 01:04:37,810 [main] INFO : Nije vraćena vrednost 
2017-06-19 01:04:37,810 [main] INFO : Obrađujemo metodu main, broj fp: 0, broj promenljivih: 0 
2017-06-19 01:04:37,811 [main] INFO : Korišćenje pp na liniji 46 
2017-06-19 01:04:37,811 [main] INFO : Korišćenje x na liniji 46 
2017-06-19 01:04:37,811 [main] INFO : Nađen poziv f-je x na liniji 46 
2017-06-19 01:04:37,811 [main] INFO : Nađen poziv f-je pp na liniji 46 
2017-06-19 01:04:37,811 [main] INFO : Tip metode main je void na liniji 47 
2017-06-19 01:04:37,811 [main] INFO : Nije vraćena vrednost 
2017-06-19 01:04:37,814 [main] INFO : 
Globalne promenljive: 9
Lokalne promenljive: 0
Globalne konstante: 2
Globalne i stat.un. f-je: 6
Pozivi f-ja u main: 2
Deklaracije formalnih argumenata: 8
 
2017-06-19 01:04:37,814 [main] INFO : Uspešno parsiranje! 
