2017-06-21 00:15:18,808 [main] INFO : Logging file: C:\Users\Dusan\Desktop\PP1\PP1 projekat\test\program.mj 
2017-06-21 00:15:18,821 [main] INFO : Našao Sabirac na liniji 1 
2017-06-21 00:15:18,821 [main] INFO : Našao a na liniji 7 
2017-06-21 00:15:18,822 [main] INFO : Adresa virtuelne tabele je 0 
2017-06-21 00:15:18,822 [main] INFO : Obrađujemo klasu B na liniji 8 
2017-06-21 00:15:18,822 [main] INFO : Obrađujemo promeljivu classA u klasi na liniji 9 
2017-06-21 00:15:18,823 [main] INFO : Obrađujemo promeljivu classB u klasi na liniji 9 
2017-06-21 00:15:18,823 [main] INFO : Obrađujemo metodu wo, broj fp: 1, broj promenljivih: 2 
