2017-06-21 01:05:45,723 [main] INFO : Logging file: C:\Users\Dusan\Desktop\PP1\PP1 projekat\test\program.mj 
2017-06-21 01:05:45,741 [main] INFO : Našao Sabirac na liniji 1 
2017-06-21 01:05:45,742 [main] INFO : Našao a na liniji 7 
2017-06-21 01:05:45,742 [main] INFO : Adresa virtuelne tabele je 0 
2017-06-21 01:05:45,743 [main] INFO : Obrađujemo klasu B na liniji 8 
2017-06-21 01:05:45,743 [main] INFO : Obrađujemo promeljivu classA u klasi na liniji 9 
2017-06-21 01:05:45,743 [main] INFO : Obrađujemo promeljivu classB u klasi na liniji 9 
2017-06-21 01:05:45,744 [main] INFO : Obrađujemo metodu wo, broj fp: 1, broj promenljivih: 2 
2017-06-21 01:06:15,179 [main] INFO : Korišćenje classA na liniji 12 
2017-06-21 01:06:51,366 [main] INFO : Korišćenje x na liniji 12 
