2017-05-29 15:16:35,783 [main] INFO : Logging file: C:\Users\Dusan\Desktop\PP1\PP1 projekat\test\program.mj 
2017-05-29 15:16:35,783 [main] INFO : Nađen program Sabirac 
2017-05-29 15:16:35,783 [main] INFO : Nađena konstanta osnova 
2017-05-29 15:16:35,783 [main] INFO : Nađena konstanta qe 
2017-05-29 15:16:35,783 [main] INFO : Nađena globalna promenljiva podosnova 
2017-05-29 15:16:35,783 [main] INFO : Nađena globalna promenljiva uzosnova 
2017-05-29 15:16:35,783 [main] INFO : Nađena globalna promenljiva nizosnova 
2017-05-29 15:16:35,783 [main] INFO : Obrađujemo metodu a 
2017-05-29 15:16:35,783 [main] INFO : Ulaz u metodu  
2017-05-29 15:16:35,783 [main] INFO : Obrađujemo metodu main 
2017-05-29 15:16:35,783 [main] INFO : Nađena lokalna promenljiva x 
2017-05-29 15:16:35,783 [main] INFO : Nađena lokalna promenljiva y 
2017-05-29 15:16:35,783 [main] INFO : Nađena lokalna promenljiva z 
2017-05-29 15:16:35,783 [main] INFO : Nađena lokalna promenljiva q 
2017-05-29 15:16:35,799 [main] INFO : Nađena lokalna promenljiva z 
2017-05-29 15:16:35,799 [main] INFO : Nađena lokalna promenljiva t 
2017-05-29 15:16:35,799 [main] INFO : Ulaz u metodu  
2017-05-29 15:16:35,799 [main] INFO : Uspešno parsiranje! 
2017-05-29 15:16:35,799 [main] INFO : 
Globalne promenljive: 3
Lokalne promenljive: 6
Globalne konstante: 2
 
